%YAML 1.1
%TAG !u! tag:unity3d.com,2011:
--- !u!74 &7400000
AnimationClip:
  m_ObjectHideFlags: 0
  m_PrefabParentObject: {fileID: 0}
  m_PrefabInternal: {fileID: 0}
  m_Name: RewardCoinGlimmerAnimation
  serializedVersion: 6
  m_Legacy: 0
  m_Compressed: 0
  m_UseHighQualityCurve: 1
  m_RotationCurves: []
  m_CompressedRotationCurves: []
  m_EulerCurves: []
  m_PositionCurves: []
  m_ScaleCurves:
  - curve:
      serializedVersion: 2
      m_Curve:
      - serializedVersion: 2
        time: 0
        value: {x: 1, y: 1, z: 1}
        inSlope: {x: 0, y: 0, z: 0}
        outSlope: {x: 0, y: 0, z: 0}
        tangentMode: 0
      - serializedVersion: 2
        time: 1
        value: {x: 1.2, y: 1.2, z: 1}
        inSlope: {x: 0, y: 0, z: 0}
        outSlope: {x: 0, y: 0, z: 0}
        tangentMode: 0
      - serializedVersion: 2
        time: 2
        value: {x: 1, y: 1, z: 1}
        inSlope: {x: 0, y: 0, z: 0}
        outSlope: {x: 0, y: 0, z: 0}
        tangentMode: 0
      m_PreInfinity: 2
      m_PostInfinity: 2
      m_RotationOrder: 4
    path: 
  m_FloatCurves: []
  m_PPtrCurves:
  - curve:
    - time: 0
      value: {fileID: 21300000, guid: 7f15b8c4878ab384db4e0ae146270c88, type: 3}
    - time: 0.16666667
      value: {fileID: 21300000, guid: d3c4c6c3f647497448feb646211d3597, type: 3}
    - time: 0.33333334
      value: {fileID: 21300000, guid: 37757860da34a2f4ab2a49b87fe9f26c, type: 3}
    - time: 0.5
      value: {fileID: 21300000, guid: c36d54f6773fb3f4f8ac1028d0c8ed77, type: 3}
    - time: 0.6666667
      value: {fileID: 21300000, guid: f60325d14f7da924ebb66085e6909858, type: 3}
    - time: 0.8333333
      value: {fileID: 21300000, guid: 713079d58588c134a87be1084d3f5f83, type: 3}
    - time: 1
      value: {fileID: 21300000, guid: 7f15b8c4878ab384db4e0ae146270c88, type: 3}
    - time: 1.1666666
      value: {fileID: 21300000, guid: d3c4c6c3f647497448feb646211d3597, type: 3}
    - time: 1.3333334
      value: {fileID: 21300000, guid: 37757860da34a2f4ab2a49b87fe9f26c, type: 3}
    - time: 1.5
      value: {fileID: 21300000, guid: c36d54f6773fb3f4f8ac1028d0c8ed77, type: 3}
    - time: 1.6666666
      value: {fileID: 21300000, guid: f60325d14f7da924ebb66085e6909858, type: 3}
    - time: 1.8333334
      value: {fileID: 21300000, guid: 713079d58588c134a87be1084d3f5f83, type: 3}
    - time: 2
      value: {fileID: 21300000, guid: 7f15b8c4878ab384db4e0ae146270c88, type: 3}
    attribute: m_Sprite
    path: 
    classID: 114
    script: {fileID: -765806418, guid: f70555f144d8491a825f0804e09c671c, type: 3}
  m_SampleRate: 30
  m_WrapMode: 0
  m_Bounds:
    m_Center: {x: 0, y: 0, z: 0}
    m_Extent: {x: 0, y: 0, z: 0}
  m_ClipBindingConstant:
    genericBindings:
    - serializedVersion: 2
      path: 0
      attribute: 3
      script: {fileID: 0}
      typeID: 4
      customType: 0
      isPPtrCurve: 0
    - serializedVersion: 2
      path: 0
      attribute: 2015549526
      script: {fileID: -765806418, guid: f70555f144d8491a825f0804e09c671c, type: 3}
      typeID: 114
      customType: 0
      isPPtrCurve: 1
    pptrCurveMapping:
    - {fileID: 21300000, guid: 7f15b8c4878ab384db4e0ae146270c88, type: 3}
    - {fileID: 21300000, guid: d3c4c6c3f647497448feb646211d3597, type: 3}
    - {fileID: 21300000, guid: 37757860da34a2f4ab2a49b87fe9f26c, type: 3}
    - {fileID: 21300000, guid: c36d54f6773fb3f4f8ac1028d0c8ed77, type: 3}
    - {fileID: 21300000, guid: f60325d14f7da924ebb66085e6909858, type: 3}
    - {fileID: 21300000, guid: 713079d58588c134a87be1084d3f5f83, type: 3}
    - {fileID: 21300000, guid: 7f15b8c4878ab384db4e0ae146270c88, type: 3}
    - {fileID: 21300000, guid: d3c4c6c3f647497448feb646211d3597, type: 3}
    - {fileID: 21300000, guid: 37757860da34a2f4ab2a49b87fe9f26c, type: 3}
    - {fileID: 21300000, guid: c36d54f6773fb3f4f8ac1028d0c8ed77, type: 3}
    - {fileID: 21300000, guid: f60325d14f7da924ebb66085e6909858, type: 3}
    - {fileID: 21300000, guid: 713079d58588c134a87be1084d3f5f83, type: 3}
    - {fileID: 21300000, guid: 7f15b8c4878ab384db4e0ae146270c88, type: 3}
  m_AnimationClipSettings:
    serializedVersion: 2
    m_AdditiveReferencePoseClip: {fileID: 0}
    m_AdditiveReferencePoseTime: 0
    m_StartTime: 0
    m_StopTime: 2.0333333
    m_OrientationOffsetY: 0
    m_Level: 0
    m_CycleOffset: 0
    m_HasAdditiveReferencePose: 0
    m_LoopTime: 1
    m_LoopBlend: 0
    m_LoopBlendOrientation: 0
    m_LoopBlendPositionY: 0
    m_LoopBlendPositionXZ: 0
    m_KeepOriginalOrientation: 0
    m_KeepOriginalPositionY: 1
    m_KeepOriginalPositionXZ: 0
    m_HeightFromFeet: 0
    m_Mirror: 0
  m_EditorCurves:
  - curve:
      serializedVersion: 2
      m_Curve:
      - serializedVersion: 2
        time: 0
        value: 1
        inSlope: 0
        outSlope: 0
        tangentMode: 136
      - serializedVersion: 2
        time: 1
        value: 1.2
        inSlope: 0
        outSlope: 0
        tangentMode: 136
      - serializedVersion: 2
        time: 2
        value: 1
        inSlope: 0
        outSlope: 0
        tangentMode: 136
      m_PreInfinity: 2
      m_PostInfinity: 2
      m_RotationOrder: 4
    attribute: m_LocalScale.x
    path: 
    classID: 224
    script: {fileID: 0}
  - curve:
      serializedVersion: 2
      m_Curve:
      - serializedVersion: 2
        time: 0
        value: 1
        inSlope: 0
        outSlope: 0
        tangentMode: 136
      - serializedVersion: 2
        time: 1
        value: 1.2
        inSlope: 0
        outSlope: 0
        tangentMode: 136
      - serializedVersion: 2
        time: 2
        value: 1
        inSlope: 0
        outSlope: 0
        tangentMode: 136
      m_PreInfinity: 2
      m_PostInfinity: 2
      m_RotationOrder: 4
    attribute: m_LocalScale.y
    path: 
    classID: 224
    script: {fileID: 0}
  - curve:
      serializedVersion: 2
      m_Curve:
      - serializedVersion: 2
        time: 0
        value: 1
        inSlope: 0
        outSlope: 0
        tangentMode: 136
      - serializedVersion: 2
        time: 1
        value: 1
        inSlope: 0
        outSlope: 0
        tangentMode: 136
      - serializedVersion: 2
        time: 2
        value: 1
        inSlope: 0
        outSlope: 0
        tangentMode: 136
      m_PreInfinity: 2
      m_PostInfinity: 2
      m_RotationOrder: 4
    attribute: m_LocalScale.z
    path: 
    classID: 224
    script: {fileID: 0}
  m_EulerEditorCurves: []
  m_HasGenericRootTransform: 0
  m_HasMotionFloatCurves: 0
  m_GenerateMotionCurves: 0
  m_Events: []
