%YAML 1.1
%TAG !u! tag:unity3d.com,2011:
--- !u!74 &7400000
AnimationClip:
  m_ObjectHideFlags: 0
  m_PrefabParentObject: {fileID: 0}
  m_PrefabInternal: {fileID: 0}
  m_Name: VMFixesTV
  serializedVersion: 6
  m_Legacy: 0
  m_Compressed: 0
  m_UseHighQualityCurve: 1
  m_RotationCurves: []
  m_CompressedRotationCurves: []
  m_EulerCurves: []
  m_PositionCurves: []
  m_ScaleCurves: []
  m_FloatCurves: []
  m_PPtrCurves:
  - curve:
    - time: 0
      value: {fileID: 21300000, guid: b56270a9441d95b4aaa58c42d90e6f54, type: 3}
    - time: 0.25
      value: {fileID: 21300000, guid: 051aee42d00cae54bb42c930d4d8987c, type: 3}
    - time: 0.5
      value: {fileID: 21300000, guid: 0f301f3d4c719f542bd782b67cfffbde, type: 3}
    - time: 0.75
      value: {fileID: 21300000, guid: bccc8b879f5a29c43ba4b1410208a4c6, type: 3}
    - time: 1
      value: {fileID: 21300000, guid: f5776f1eb99ed8d41b6506a14268f237, type: 3}
    - time: 1.25
      value: {fileID: 21300000, guid: 4cf1ce5c43cb71e478e092662aa02bc5, type: 3}
    - time: 1.5
      value: {fileID: 21300000, guid: e848a9667247f51408efd7064430e43e, type: 3}
    - time: 1.75
      value: {fileID: 21300000, guid: e848a9667247f51408efd7064430e43e, type: 3}
    - time: 2
      value: {fileID: 21300000, guid: bccc8b879f5a29c43ba4b1410208a4c6, type: 3}
    - time: 2.25
      value: {fileID: 21300000, guid: f5776f1eb99ed8d41b6506a14268f237, type: 3}
    - time: 2.5
      value: {fileID: 21300000, guid: 4cf1ce5c43cb71e478e092662aa02bc5, type: 3}
    - time: 2.75
      value: {fileID: 21300000, guid: e848a9667247f51408efd7064430e43e, type: 3}
    - time: 3
      value: {fileID: 21300000, guid: e848a9667247f51408efd7064430e43e, type: 3}
    - time: 3.25
      value: {fileID: 21300000, guid: e848a9667247f51408efd7064430e43e, type: 3}
    - time: 3.5
      value: {fileID: 21300000, guid: 4cf1ce5c43cb71e478e092662aa02bc5, type: 3}
    - time: 3.75
      value: {fileID: 21300000, guid: f5776f1eb99ed8d41b6506a14268f237, type: 3}
    - time: 4
      value: {fileID: 21300000, guid: 530b063f3fff2cd4b98001d1cce568e4, type: 3}
    - time: 4.25
      value: {fileID: 21300000, guid: 7440ce408dcc6c54696668446b64458b, type: 3}
    - time: 4.5
      value: {fileID: 21300000, guid: b56270a9441d95b4aaa58c42d90e6f54, type: 3}
    attribute: m_Sprite
    path: 
    classID: 114
    script: {fileID: -765806418, guid: f70555f144d8491a825f0804e09c671c, type: 3}
  m_SampleRate: 20
  m_WrapMode: 0
  m_Bounds:
    m_Center: {x: 0, y: 0, z: 0}
    m_Extent: {x: 0, y: 0, z: 0}
  m_ClipBindingConstant:
    genericBindings:
    - serializedVersion: 2
      path: 0
      attribute: 2015549526
      script: {fileID: -765806418, guid: f70555f144d8491a825f0804e09c671c, type: 3}
      typeID: 114
      customType: 0
      isPPtrCurve: 1
    pptrCurveMapping:
    - {fileID: 21300000, guid: b56270a9441d95b4aaa58c42d90e6f54, type: 3}
    - {fileID: 21300000, guid: 051aee42d00cae54bb42c930d4d8987c, type: 3}
    - {fileID: 21300000, guid: 0f301f3d4c719f542bd782b67cfffbde, type: 3}
    - {fileID: 21300000, guid: bccc8b879f5a29c43ba4b1410208a4c6, type: 3}
    - {fileID: 21300000, guid: f5776f1eb99ed8d41b6506a14268f237, type: 3}
    - {fileID: 21300000, guid: 4cf1ce5c43cb71e478e092662aa02bc5, type: 3}
    - {fileID: 21300000, guid: e848a9667247f51408efd7064430e43e, type: 3}
    - {fileID: 21300000, guid: e848a9667247f51408efd7064430e43e, type: 3}
    - {fileID: 21300000, guid: bccc8b879f5a29c43ba4b1410208a4c6, type: 3}
    - {fileID: 21300000, guid: f5776f1eb99ed8d41b6506a14268f237, type: 3}
    - {fileID: 21300000, guid: 4cf1ce5c43cb71e478e092662aa02bc5, type: 3}
    - {fileID: 21300000, guid: e848a9667247f51408efd7064430e43e, type: 3}
    - {fileID: 21300000, guid: e848a9667247f51408efd7064430e43e, type: 3}
    - {fileID: 21300000, guid: e848a9667247f51408efd7064430e43e, type: 3}
    - {fileID: 21300000, guid: 4cf1ce5c43cb71e478e092662aa02bc5, type: 3}
    - {fileID: 21300000, guid: f5776f1eb99ed8d41b6506a14268f237, type: 3}
    - {fileID: 21300000, guid: 530b063f3fff2cd4b98001d1cce568e4, type: 3}
    - {fileID: 21300000, guid: 7440ce408dcc6c54696668446b64458b, type: 3}
    - {fileID: 21300000, guid: b56270a9441d95b4aaa58c42d90e6f54, type: 3}
  m_AnimationClipSettings:
    serializedVersion: 2
    m_AdditiveReferencePoseClip: {fileID: 0}
    m_AdditiveReferencePoseTime: 0
    m_StartTime: 0
    m_StopTime: 4.55
    m_OrientationOffsetY: 0
    m_Level: 0
    m_CycleOffset: 0
    m_HasAdditiveReferencePose: 0
    m_LoopTime: 0
    m_LoopBlend: 0
    m_LoopBlendOrientation: 0
    m_LoopBlendPositionY: 0
    m_LoopBlendPositionXZ: 0
    m_KeepOriginalOrientation: 0
    m_KeepOriginalPositionY: 1
    m_KeepOriginalPositionXZ: 0
    m_HeightFromFeet: 0
    m_Mirror: 0
  m_EditorCurves: []
  m_EulerEditorCurves: []
  m_HasGenericRootTransform: 0
  m_HasMotionFloatCurves: 0
  m_GenerateMotionCurves: 0
  m_Events:
  - time: 0.7
    functionName: playTVFixingSound
    data: 
    objectReferenceParameter: {fileID: 0}
    floatParameter: 0
    intParameter: 0
    messageOptions: 0
